…
3.  Re-lengthen the data.

<!-- end list -->

``` r
gap_uni %>% pivot_longer(cols = c("Canada", "China"),
                             names_to = "country",
                             values_to = "lifeExp")
```

    ## # A tibble: 24 x 3
    ##     year country lifeExp
    ##    <int> <chr>     <dbl>
    ##  1  1952 Canada     68.8
    ##  2  1952 China      44  
    ##  3  1957 Canada     70.0
    ##  4  1957 China      50.5
    ##  5  1962 Canada     71.3
    ##  6  1962 China      44.5
    ##  7  1967 Canada     72.1
    ##  8  1967 China      58.4
    ##  9  1972 Canada     72.9
    ## 10  1972 China      63.1
    ## # … with 14 more rows
…
2.  Re-lengthen the data.

<!-- end list -->

``` r
gap_multi %>% pivot_longer(cols = -year,
                           names_to = c(".value", "country"),
                           names_sep = "_")
```

    ## # A tibble: 24 x 4
    ##     year country  lifeExp gdpPercap
    ##    <int> <chr>      <dbl>     <dbl>
    ##  1  1952 Cambodia    39.4      368.
    ##  2  1952 Egypt       41.9     1419.
    ##  3  1957 Cambodia    41.4      434.
    ##  4  1957 Egypt       44.4     1459.
    ##  5  1962 Cambodia    43.4      497.
    ##  6  1962 Egypt       47.0     1693.
    ##  7  1967 Cambodia    45.4      523.
    ##  8  1967 Egypt       49.3     1815.
    ##  9  1972 Cambodia    40.3      422.
    ## 10  1972 Egypt       51.1     2024.
    ## # … with 14 more rows
…
3.1 For each guest in the guestlist (guest tibble), add a column for
email address, which can be found in the email
tibble.

``` r
emails <- email %>% separate_rows(guest, sep = ", ") %>% # seperate a collapsed column into multiple rows. Notice the sep is one comma and one white space
  mutate(name = guest) %>% 
  select(name, email)
emails
```

    ## # A tibble: 28 x 2
    ##    name            email              
    ##    <chr>           <chr>              
    ##  1 Sommer Medrano  sommm@gmail.com    
    ##  2 Phillip Medrano sommm@gmail.com    
    ##  3 Blanka Medrano  sommm@gmail.com    
    ##  4 Emaan Medrano   sommm@gmail.com    
    ##  5 Blair Park      bpark@gmail.com    
    ##  6 Nigel Webb      bpark@gmail.com    
    ##  7 Sinead English  singlish@hotmail.ca
    ##  8 Ayra Marks      marksa42@gmail.com 
    ##  9 Jolene Welsh    jw1987@hotmail.com 
    ## 10 Hayley Booker   jw1987@hotmail.com 
    ## # … with 18 more rows

``` r
guest %>% 
  left_join(emails, by="name")
```

    ## # A tibble: 30 x 8
    ##    party name  meal_wedding meal_brunch attendance_wedd… attendance_brun…
    ##    <dbl> <chr> <chr>        <chr>       <chr>            <chr>           
    ##  1     1 Somm… PENDING      PENDING     PENDING          PENDING         
    ##  2     1 Phil… vegetarian   Menu C      CONFIRMED        CONFIRMED       
    ##  3     1 Blan… chicken      Menu A      CONFIRMED        CONFIRMED       
    ##  4     1 Emaa… PENDING      PENDING     PENDING          PENDING         
    ##  5     2 Blai… chicken      Menu C      CONFIRMED        CONFIRMED       
    ##  6     2 Nige… <NA>         <NA>        CANCELLED        CANCELLED       
    ##  7     3 Sine… PENDING      PENDING     PENDING          PENDING         
    ##  8     4 Ayra… vegetarian   Menu B      PENDING          PENDING         
    ##  9     5 Atla… PENDING      PENDING     PENDING          PENDING         
    ## 10     5 Denz… fish         Menu B      CONFIRMED        CONFIRMED       
    ## # … with 20 more rows, and 2 more variables: attendance_golf <chr>,
    ## #   email <chr>
…
    ## # A tibble: 3 x 2
    ##   name            email                          
    ##   <chr>           <chr>                          
    ## 1 Turner Jones    tjjones12@hotmail.ca           
    ## 2 Albert Marshall themarshallfamily1234@gmail.com
    ## 3 Vivian Marshall themarshallfamily1234@gmail.com

3.3 Make a guestlist that includes everyone we have emails for (in
addition to those on the original guestlist).

``` r
guest %>% full_join(emails, by="name")
```

    ## # A tibble: 33 x 8
    ##    party name  meal_wedding meal_brunch attendance_wedd… attendance_brun…
    ##    <dbl> <chr> <chr>        <chr>       <chr>            <chr>           
    ##  1     1 Somm… PENDING      PENDING     PENDING          PENDING         
    ##  2     1 Phil… vegetarian   Menu C      CONFIRMED        CONFIRMED       
    ##  3     1 Blan… chicken      Menu A      CONFIRMED        CONFIRMED       
    ##  4     1 Emaa… PENDING      PENDING     PENDING          PENDING         
    ##  5     2 Blai… chicken      Menu C      CONFIRMED        CONFIRMED       
    ##  6     2 Nige… <NA>         <NA>        CANCELLED        CANCELLED       
    ##  7     3 Sine… PENDING      PENDING     PENDING          PENDING         
    ##  8     4 Ayra… vegetarian   Menu B      PENDING          PENDING         
    ##  9     5 Atla… PENDING      PENDING     PENDING          PENDING         
    ## 10     5 Denz… fish         Menu B      CONFIRMED        CONFIRMED       
    ## # … with 23 more rows, and 2 more variables: attendance_golf <chr>,
    ## #   email <chr>
